…
## Examples

There are different functions that can be called depending on the users
needs

### Example 1

Count the amount of commits from each user

``` r
library(tidyverse)
library(chchchanges)
tbl_commits()
#> # A tibble: 121 × 4
#>    what                                     who                 when       why  
#>    <chr>                                    <chr>               <chr>      <chr>
#>  1 e7b5e664bc8f8044a2202c5fede0eda585ba2c57 beanumber           2025-01-0… "add…
#>  2 f4ef9619dd51a18ecfc6ec8cd0296bcf2cb7a97c beanumber           2025-01-0… "tid…
#>  3 31e4ea906fbb8606deedf4389cf45a503e4bc411 Ben Baumer          2025-01-0… "pas…
#>  4 1ac1b460e652589384f176239dc58a4980941a21 Ben Baumer          2025-01-0… "onl…
#>  5 52ddff48f3bccc0f6e159f200b5f72f380f4e6ff Ben Baumer          2025-01-0… "rem…
#>  6 a3d4082c3741dc500247c1cee8b044857df6bb5c Ben Baumer          2025-01-0… "add…
#>  7 1ea654904b3e2bfef6438c010b85e0b3908c8c10 Ben Baumer          2025-01-0… "mad…
#>  8 d7551386912ddd37221ab87436aedc030110a4f1 GitHub              2024-12-1… "Mer…
#>  9 e2a22bed06d0b31a03bcf64c481f301c89e67788 NicoleSanchezFlores 2024-12-1… "cha…
#> 10 9f456f4b967901253524be4320bdc4d2978f4baa GitHub              2024-12-1… "Mer…
#> # ℹ 111 more rows
…
### Example 2

Summarize the hunks within the repository

``` r
tbl_blame(path = "README.md")
#> # A tibble: 50 × 4
#>    who        when                    how                                  lines
#>    <chr>      <chr>                   <chr>                                <int>
#>  1 Ben Baumer 2025-01-08 20:24:26 GMT 1ea654904b3e2bfef6438c010b85e0b3908…     3
#>  2 Ben Baumer 2025-01-08 20:26:58 GMT a3d4082c3741dc500247c1cee8b044857df…     1
#>  3 dmcam02    2024-12-10 02:40:39 GMT 4b90c1af3d8ed53d2bd8e1a4db3cbf4480f…     1
#>  4 dmcam02    2024-12-18 01:02:42 GMT 8b6a689be3a4d3180f8380af55ab65c8dfe…     1
#>  5 Ben Baumer 2025-01-08 20:26:58 GMT a3d4082c3741dc500247c1cee8b044857df…     2
#>  6 dmcam02    2024-12-18 01:04:44 GMT 554cdc64227abc0f3ce0187f794a486878c…     1
#>  7 dmcam02    2024-12-17 18:38:35 GMT d9b0c12af4374c7ed19ec9e6b4b1564f490…     1
#>  8 Ben Baumer 2025-01-08 20:24:26 GMT 1ea654904b3e2bfef6438c010b85e0b3908…     3
#>  9 dmcam02    2024-12-10 02:40:39 GMT 4b90c1af3d8ed53d2bd8e1a4db3cbf4480f…     1
#> 10 Ben Baumer 2025-01-08 20:24:26 GMT 1ea654904b3e2bfef6438c010b85e0b3908…     1
#> # ℹ 40 more rows
…
